[api-updater (non-obsolete-error-filter)] 2022-02-23 PM 4:30:57 : Starting C:/Program Files/Unity/Hub/Editor/2020.3.20f1/Editor/Data/Tools/ScriptUpdater/APIUpdater.NonObsoleteApiUpdaterDetector.exe
[api-updater (non-obsolete-error-filter)] 
----------------------------------
jit/startup time      : 5176.2961ms
moved types parse time: 65ms
candidates parse time : 1ms
C# parse time         : 1091ms
candidates check time : 114ms
console write time    : 13ms

[api-updater (non-obsolete-error-filter)] 2022-02-23 PM 4:44:23 : Starting C:/Program Files/Unity/Hub/Editor/2020.3.20f1/Editor/Data/Tools/ScriptUpdater/APIUpdater.NonObsoleteApiUpdaterDetector.exe
[api-updater (non-obsolete-error-filter)] 
----------------------------------
jit/startup time      : 62.0036ms
moved types parse time: 65ms
candidates parse time : 1ms
C# parse time         : 262ms
candidates check time : 35ms
console write time    : 0ms

[api-updater (non-obsolete-error-filter)] 2022-02-25 AM 10:43:44 : Starting C:/Program Files/Unity/Hub/Editor/2020.3.20f1/Editor/Data/Tools/ScriptUpdater/APIUpdater.NonObsoleteApiUpdaterDetector.exe
[api-updater (non-obsolete-error-filter)] 
----------------------------------
jit/startup time      : 2581.1477ms
moved types parse time: 61ms
candidates parse time : 1ms
C# parse time         : 970ms
candidates check time : 78ms
console write time    : 0ms

[api-updater (non-obsolete-error-filter)] 2022-02-25 AM 11:28:23 : Starting C:/Program Files/Unity/Hub/Editor/2020.3.20f1/Editor/Data/Tools/ScriptUpdater/APIUpdater.NonObsoleteApiUpdaterDetector.exe
[api-updater (non-obsolete-error-filter)] 
----------------------------------
jit/startup time      : 840.0012ms
moved types parse time: 60ms
candidates parse time : 1ms
C# parse time         : 622ms
candidates check time : 41ms
console write time    : 0ms

[api-updater (non-obsolete-error-filter)] 2022-02-26 PM 5:15:27 : Starting C:/Program Files/Unity/Hub/Editor/2020.3.20f1/Editor/Data/Tools/ScriptUpdater/APIUpdater.NonObsoleteApiUpdaterDetector.exe
[api-updater (non-obsolete-error-filter)] 
----------------------------------
jit/startup time      : 5640.0079ms
moved types parse time: 64ms
candidates parse time : 1ms
C# parse time         : 900ms
candidates check time : 39ms
console write time    : 0ms

[api-updater (non-obsolete-error-filter)] 2022-02-27 AM 10:59:40 : Starting C:/Program Files/Unity/Hub/Editor/2020.3.20f1/Editor/Data/Tools/ScriptUpdater/APIUpdater.NonObsoleteApiUpdaterDetector.exe
[api-updater (non-obsolete-error-filter)] 
----------------------------------
jit/startup time      : 2390.0033ms
moved types parse time: 64ms
candidates parse time : 1ms
C# parse time         : 804ms
candidates check time : 46ms
console write time    : 0ms

[api-updater (non-obsolete-error-filter)] 2022-02-27 AM 11:09:44 : Starting C:/Program Files/Unity/Hub/Editor/2020.3.20f1/Editor/Data/Tools/ScriptUpdater/APIUpdater.NonObsoleteApiUpdaterDetector.exe
[api-updater (non-obsolete-error-filter)] 
----------------------------------
jit/startup time      : 57.0032ms
moved types parse time: 67ms
candidates parse time : 1ms
C# parse time         : 258ms
candidates check time : 37ms
console write time    : 0ms

[api-updater (non-obsolete-error-filter)] 2022-02-28 AM 10:20:58 : Starting C:/Program Files/Unity/Hub/Editor/2020.3.20f1/Editor/Data/Tools/ScriptUpdater/APIUpdater.NonObsoleteApiUpdaterDetector.exe
[api-updater (non-obsolete-error-filter)] 
----------------------------------
jit/startup time      : 3676.2064ms
moved types parse time: 65ms
candidates parse time : 1ms
C# parse time         : 878ms
candidates check time : 37ms
console write time    : 0ms

[api-updater (non-obsolete-error-filter)] 2022-02-28 AM 10:42:38 : Starting C:/Program Files/Unity/Hub/Editor/2020.3.20f1/Editor/Data/Tools/ScriptUpdater/APIUpdater.NonObsoleteApiUpdaterDetector.exe
[api-updater (non-obsolete-error-filter)] 
----------------------------------
jit/startup time      : 527.0296ms
moved types parse time: 66ms
candidates parse time : 1ms
C# parse time         : 305ms
candidates check time : 35ms
console write time    : 0ms

[api-updater (non-obsolete-error-filter)] 2022-02-28 AM 11:09:13 : Starting C:/Program Files/Unity/Hub/Editor/2020.3.20f1/Editor/Data/Tools/ScriptUpdater/APIUpdater.NonObsoleteApiUpdaterDetector.exe
[api-updater (non-obsolete-error-filter)] 
----------------------------------
jit/startup time      : 816.045ms
moved types parse time: 62ms
candidates parse time : 1ms
C# parse time         : 389ms
candidates check time : 40ms
console write time    : 0ms

