%YAML 1.1
%TAG !u! tag:unity3d.com,2011:
--- !u!162 &1
EditorUserSettings:
  m_ObjectHideFlags: 0
  serializedVersion: 4
  m_ConfigSettings:
    RecentlyUsedScenePath-0:
      value: 22424703114646680e0b0227036c6c111b07142f1f2b233e2867083debf42d
      flags: 0
    RecentlyUsedScenePath-1:
      value: 22424703114646680e0b0227036c721f021e17240e243322633c133af6f9
      flags: 0
    RecentlyUsedScenePath-2:
      value: 22424703114646680e0b0227036c731518043c233f3c29223920123dacf53a31f6fe
      flags: 0
    RecentlyUsedScenePath-3:
      value: 22424703114646680e0b0227036c0f41583b1d243f0c2f2339260f27ebef3a76f7e93ffdfe
      flags: 0
    RecentlyUsedScenePath-4:
      value: 22424703114646680e0b0227036c0f425834103823252724242a3c31e7f22639f6ee39e7a92f31352d1b
      flags: 0
    RecentlyUsedScenePath-5:
      value: 22424703114646680e0b0227036c0f40583a173e25272812213c0f7df7ee3d2cfb
      flags: 0
    vcSharedLogLevel:
      value: 0d5e400f0650
      flags: 0
  m_VCAutomaticAdd: 1
  m_VCDebugCom: 0
  m_VCDebugCmd: 0
  m_VCDebugOut: 0
  m_SemanticMergeMode: 2
  m_VCShowFailedCheckout: 1
  m_VCOverwriteFailedCheckoutAssets: 1
  m_VCProjectOverlayIcons: 1
  m_VCHierarchyOverlayIcons: 1
  m_VCOtherOverlayIcons: 1
  m_VCAllowAsyncUpdate: 1
